\relax 
\@writefile{toc}{\contentsline {section}{\numberline {1}Equations}{i}}
\@writefile{toc}{\contentsline {section}{\numberline {2}Results}{i}}
\@writefile{lof}{\contentsline {figure}{\numberline {1}{\ignorespaces molar flow rate vs volume}}{i}}
\newlabel{Molar Flow Rate}{{1}{i}}
\@writefile{lof}{\contentsline {figure}{\numberline {2}{\ignorespaces Time vs Volume}}{i}}
